-------------------- Auto-Git Log --------------------
		Sun Nov 24 2019 09:35:22 GMT-0500 (hora estándar de Colombia)
------------------------------------------------------

Modified files:
* src/static/styles/_base/_bootswatch.scss
* src/static/styles/_base/_variables.scss


Created files:
* .autogit/logs/log-24-10-2019-9-5-1.txt


Deleted files:


Renamed files:
